locs,techs,lifetime
A1,car_ev,15.0
A1,car_ice,10.0
A1,electric_heater,30.0
A1,electric_hob,25.0
A1,gas_boiler,25.0
A1,gas_hob,25.0
A1,ground_heat,25.0
A1,gshp,20.0
A1,load_shedding,inf
A1,power_lines:EG,25.0
A1,pv,25.0
A1,st_fp,25.0
A1,st_vt,25.0
A1,store_electricity,10.0
A1,store_heat,20.0
A1,supply_diesel,25.0
A1,supply_gas,25.0
A2,car_ev,15.0
A2,car_ice,10.0
A2,electric_heater,30.0
A2,electric_hob,25.0
A2,gas_boiler,25.0
A2,gas_hob,25.0
A2,ground_heat,25.0
A2,gshp,20.0
A2,load_shedding,inf
A2,power_lines:EG,25.0
A2,pv,25.0
A2,st_fp,25.0
A2,st_vt,25.0
A2,store_electricity,10.0
A2,store_heat,20.0
A2,supply_diesel,25.0
A2,supply_gas,25.0
A3,car_ev,15.0
A3,car_ice,10.0
A3,electric_heater,30.0
A3,electric_hob,25.0
A3,gas_boiler,25.0
A3,gas_hob,25.0
A3,ground_heat,25.0
A3,gshp,20.0
A3,load_shedding,inf
A3,power_lines:EG,25.0
A3,pv,25.0
A3,st_fp,25.0
A3,st_vt,25.0
A3,store_electricity,10.0
A3,store_heat,20.0
A3,supply_diesel,25.0
A3,supply_gas,25.0
A4,car_ev,15.0
A4,car_ice,10.0
A4,electric_heater,30.0
A4,electric_hob,25.0
A4,gas_boiler,25.0
A4,gas_hob,25.0
A4,ground_heat,25.0
A4,gshp,20.0
A4,load_shedding,inf
A4,power_lines:EG,25.0
A4,pv,25.0
A4,st_fp,25.0
A4,st_vt,25.0
A4,store_electricity,10.0
A4,store_heat,20.0
A4,supply_diesel,25.0
A4,supply_gas,25.0
A5,car_ev,15.0
A5,car_ice,10.0
A5,electric_heater,30.0
A5,electric_hob,25.0
A5,gas_boiler,25.0
A5,gas_hob,25.0
A5,ground_heat,25.0
A5,gshp,20.0
A5,load_shedding,inf
A5,power_lines:EG,25.0
A5,pv,25.0
A5,st_fp,25.0
A5,st_vt,25.0
A5,store_electricity,10.0
A5,store_heat,20.0
A5,supply_diesel,25.0
A5,supply_gas,25.0
A6,car_ev,15.0
A6,car_ice,10.0
A6,electric_heater,30.0
A6,electric_hob,25.0
A6,gas_boiler,25.0
A6,gas_hob,25.0
A6,ground_heat,25.0
A6,gshp,20.0
A6,load_shedding,inf
A6,power_lines:EG,25.0
A6,pv,25.0
A6,st_fp,25.0
A6,st_vt,25.0
A6,store_electricity,10.0
A6,store_heat,20.0
A6,supply_diesel,25.0
A6,supply_gas,25.0
A7,car_ev,15.0
A7,car_ice,10.0
A7,electric_heater,30.0
A7,electric_hob,25.0
A7,gas_boiler,25.0
A7,gas_hob,25.0
A7,ground_heat,25.0
A7,gshp,20.0
A7,load_shedding,inf
A7,power_lines:EG,25.0
A7,pv,25.0
A7,st_fp,25.0
A7,st_vt,25.0
A7,store_electricity,10.0
A7,store_heat,20.0
A7,supply_diesel,25.0
A7,supply_gas,25.0
A8,car_ev,15.0
A8,car_ice,10.0
A8,electric_heater,30.0
A8,electric_hob,25.0
A8,gas_boiler,25.0
A8,gas_hob,25.0
A8,ground_heat,25.0
A8,gshp,20.0
A8,load_shedding,inf
A8,power_lines:EG,25.0
A8,pv,25.0
A8,st_fp,25.0
A8,st_vt,25.0
A8,store_electricity,10.0
A8,store_heat,20.0
A8,supply_diesel,25.0
A8,supply_gas,25.0
B1,car_ev,15.0
B1,car_ice,10.0
B1,electric_heater,30.0
B1,electric_hob,25.0
B1,gas_boiler,25.0
B1,gas_hob,25.0
B1,ground_heat,25.0
B1,gshp,20.0
B1,load_shedding,inf
B1,power_lines:EG,25.0
B1,pv,25.0
B1,st_fp,25.0
B1,st_vt,25.0
B1,store_electricity,10.0
B1,store_heat,20.0
B1,supply_diesel,25.0
B1,supply_gas,25.0
B2,car_ev,15.0
B2,car_ice,10.0
B2,electric_heater,30.0
B2,electric_hob,25.0
B2,gas_boiler,25.0
B2,gas_hob,25.0
B2,ground_heat,25.0
B2,gshp,20.0
B2,load_shedding,inf
B2,power_lines:EG,25.0
B2,pv,25.0
B2,st_fp,25.0
B2,st_vt,25.0
B2,store_electricity,10.0
B2,store_heat,20.0
B2,supply_diesel,25.0
B2,supply_gas,25.0
B3,car_ev,15.0
B3,car_ice,10.0
B3,electric_heater,30.0
B3,electric_hob,25.0
B3,gas_boiler,25.0
B3,gas_hob,25.0
B3,ground_heat,25.0
B3,gshp,20.0
B3,load_shedding,inf
B3,power_lines:EG,25.0
B3,pv,25.0
B3,st_fp,25.0
B3,st_vt,25.0
B3,store_electricity,10.0
B3,store_heat,20.0
B3,supply_diesel,25.0
B3,supply_gas,25.0
B4,car_ev,15.0
B4,car_ice,10.0
B4,electric_heater,30.0
B4,electric_hob,25.0
B4,gas_boiler,25.0
B4,gas_hob,25.0
B4,ground_heat,25.0
B4,gshp,20.0
B4,load_shedding,inf
B4,power_lines:EG,25.0
B4,pv,25.0
B4,st_fp,25.0
B4,st_vt,25.0
B4,store_electricity,10.0
B4,store_heat,20.0
B4,supply_diesel,25.0
B4,supply_gas,25.0
B5,car_ev,15.0
B5,car_ice,10.0
B5,electric_heater,30.0
B5,electric_hob,25.0
B5,gas_boiler,25.0
B5,gas_hob,25.0
B5,ground_heat,25.0
B5,gshp,20.0
B5,load_shedding,inf
B5,power_lines:EG,25.0
B5,pv,25.0
B5,st_fp,25.0
B5,st_vt,25.0
B5,store_electricity,10.0
B5,store_heat,20.0
B5,supply_diesel,25.0
B5,supply_gas,25.0
C1,car_ev,15.0
C1,car_ice,10.0
C1,electric_heater,30.0
C1,electric_hob,25.0
C1,gas_boiler,25.0
C1,gas_hob,25.0
C1,ground_heat,25.0
C1,gshp,20.0
C1,load_shedding,inf
C1,power_lines:EG,25.0
C1,pv,25.0
C1,st_fp,25.0
C1,st_vt,25.0
C1,store_electricity,10.0
C1,store_heat,20.0
C1,supply_diesel,25.0
C1,supply_gas,25.0
C10,car_ev,15.0
C10,car_ice,10.0
C10,electric_heater,30.0
C10,electric_hob,25.0
C10,gas_boiler,25.0
C10,gas_hob,25.0
C10,ground_heat,25.0
C10,gshp,20.0
C10,load_shedding,inf
C10,power_lines:EG,25.0
C10,pv,25.0
C10,st_fp,25.0
C10,st_vt,25.0
C10,store_electricity,10.0
C10,store_heat,20.0
C10,supply_diesel,25.0
C10,supply_gas,25.0
C11,car_ev,15.0
C11,car_ice,10.0
C11,electric_heater,30.0
C11,electric_hob,25.0
C11,gas_boiler,25.0
C11,gas_hob,25.0
C11,ground_heat,25.0
C11,gshp,20.0
C11,load_shedding,inf
C11,power_lines:EG,25.0
C11,pv,25.0
C11,st_fp,25.0
C11,st_vt,25.0
C11,store_electricity,10.0
C11,store_heat,20.0
C11,supply_diesel,25.0
C11,supply_gas,25.0
C12,car_ev,15.0
C12,car_ice,10.0
C12,electric_heater,30.0
C12,electric_hob,25.0
C12,gas_boiler,25.0
C12,gas_hob,25.0
C12,ground_heat,25.0
C12,gshp,20.0
C12,load_shedding,inf
C12,power_lines:EG,25.0
C12,pv,25.0
C12,st_fp,25.0
C12,st_vt,25.0
C12,store_electricity,10.0
C12,store_heat,20.0
C12,supply_diesel,25.0
C12,supply_gas,25.0
C2,car_ev,15.0
C2,car_ice,10.0
C2,electric_heater,30.0
C2,electric_hob,25.0
C2,gas_boiler,25.0
C2,gas_hob,25.0
C2,ground_heat,25.0
C2,gshp,20.0
C2,load_shedding,inf
C2,power_lines:EG,25.0
C2,pv,25.0
C2,st_fp,25.0
C2,st_vt,25.0
C2,store_electricity,10.0
C2,store_heat,20.0
C2,supply_diesel,25.0
C2,supply_gas,25.0
C3,car_ev,15.0
C3,car_ice,10.0
C3,electric_heater,30.0
C3,electric_hob,25.0
C3,gas_boiler,25.0
C3,gas_hob,25.0
C3,ground_heat,25.0
C3,gshp,20.0
C3,load_shedding,inf
C3,power_lines:EG,25.0
C3,pv,25.0
C3,st_fp,25.0
C3,st_vt,25.0
C3,store_electricity,10.0
C3,store_heat,20.0
C3,supply_diesel,25.0
C3,supply_gas,25.0
C4,car_ev,15.0
C4,car_ice,10.0
C4,electric_heater,30.0
C4,electric_hob,25.0
C4,gas_boiler,25.0
C4,gas_hob,25.0
C4,ground_heat,25.0
C4,gshp,20.0
C4,load_shedding,inf
C4,power_lines:EG,25.0
C4,pv,25.0
C4,st_fp,25.0
C4,st_vt,25.0
C4,store_electricity,10.0
C4,store_heat,20.0
C4,supply_diesel,25.0
C4,supply_gas,25.0
C5,car_ev,15.0
C5,car_ice,10.0
C5,electric_heater,30.0
C5,electric_hob,25.0
C5,gas_boiler,25.0
C5,gas_hob,25.0
C5,ground_heat,25.0
C5,gshp,20.0
C5,load_shedding,inf
C5,power_lines:EG,25.0
C5,pv,25.0
C5,st_fp,25.0
C5,st_vt,25.0
C5,store_electricity,10.0
C5,store_heat,20.0
C5,supply_diesel,25.0
C5,supply_gas,25.0
C6,car_ev,15.0
C6,car_ice,10.0
C6,electric_heater,30.0
C6,electric_hob,25.0
C6,gas_boiler,25.0
C6,gas_hob,25.0
C6,ground_heat,25.0
C6,gshp,20.0
C6,load_shedding,inf
C6,power_lines:EG,25.0
C6,pv,25.0
C6,st_fp,25.0
C6,st_vt,25.0
C6,store_electricity,10.0
C6,store_heat,20.0
C6,supply_diesel,25.0
C6,supply_gas,25.0
C7,car_ev,15.0
C7,car_ice,10.0
C7,electric_heater,30.0
C7,electric_hob,25.0
C7,gas_boiler,25.0
C7,gas_hob,25.0
C7,ground_heat,25.0
C7,gshp,20.0
C7,load_shedding,inf
C7,power_lines:EG,25.0
C7,pv,25.0
C7,st_fp,25.0
C7,st_vt,25.0
C7,store_electricity,10.0
C7,store_heat,20.0
C7,supply_diesel,25.0
C7,supply_gas,25.0
C8,car_ev,15.0
C8,car_ice,10.0
C8,electric_heater,30.0
C8,electric_hob,25.0
C8,gas_boiler,25.0
C8,gas_hob,25.0
C8,ground_heat,25.0
C8,gshp,20.0
C8,load_shedding,inf
C8,power_lines:EG,25.0
C8,pv,25.0
C8,st_fp,25.0
C8,st_vt,25.0
C8,store_electricity,10.0
C8,store_heat,20.0
C8,supply_diesel,25.0
C8,supply_gas,25.0
C9,car_ev,15.0
C9,car_ice,10.0
C9,electric_heater,30.0
C9,electric_hob,25.0
C9,gas_boiler,25.0
C9,gas_hob,25.0
C9,ground_heat,25.0
C9,gshp,20.0
C9,load_shedding,inf
C9,power_lines:EG,25.0
C9,pv,25.0
C9,st_fp,25.0
C9,st_vt,25.0
C9,store_electricity,10.0
C9,store_heat,20.0
C9,supply_diesel,25.0
C9,supply_gas,25.0
EG,chp,25.0
EG,power_lines:A1,25.0
EG,power_lines:A2,25.0
EG,power_lines:A3,25.0
EG,power_lines:A4,25.0
EG,power_lines:A5,25.0
EG,power_lines:A6,25.0
EG,power_lines:A7,25.0
EG,power_lines:A8,25.0
EG,power_lines:B1,25.0
EG,power_lines:B2,25.0
EG,power_lines:B3,25.0
EG,power_lines:B4,25.0
EG,power_lines:B5,25.0
EG,power_lines:C1,25.0
EG,power_lines:C10,25.0
EG,power_lines:C11,25.0
EG,power_lines:C12,25.0
EG,power_lines:C2,25.0
EG,power_lines:C3,25.0
EG,power_lines:C4,25.0
EG,power_lines:C5,25.0
EG,power_lines:C6,25.0
EG,power_lines:C7,25.0
EG,power_lines:C8,25.0
EG,power_lines:C9,25.0
EG,pv,25.0
EG,supply_gas,25.0
EG,supply_grid_power,25.0
