locs,techs,resource_eff
A1,pv,1.0
A1,st_fp,1.0
A1,st_vt,1.0
A2,pv,1.0
A2,st_fp,1.0
A2,st_vt,1.0
A3,pv,1.0
A3,st_fp,1.0
A3,st_vt,1.0
A4,pv,1.0
A4,st_fp,1.0
A4,st_vt,1.0
A5,pv,1.0
A5,st_fp,1.0
A5,st_vt,1.0
A6,pv,1.0
A6,st_fp,1.0
A6,st_vt,1.0
A7,pv,1.0
A7,st_fp,1.0
A7,st_vt,1.0
A8,pv,1.0
A8,st_fp,1.0
A8,st_vt,1.0
B1,pv,1.0
B1,st_fp,1.0
B1,st_vt,1.0
B2,pv,1.0
B2,st_fp,1.0
B2,st_vt,1.0
B3,pv,1.0
B3,st_fp,1.0
B3,st_vt,1.0
B4,pv,1.0
B4,st_fp,1.0
B4,st_vt,1.0
B5,pv,1.0
B5,st_fp,1.0
B5,st_vt,1.0
C1,pv,1.0
C1,st_fp,1.0
C1,st_vt,1.0
C10,pv,1.0
C10,st_fp,1.0
C10,st_vt,1.0
C11,pv,1.0
C11,st_fp,1.0
C11,st_vt,1.0
C12,pv,1.0
C12,st_fp,1.0
C12,st_vt,1.0
C2,pv,1.0
C2,st_fp,1.0
C2,st_vt,1.0
C3,pv,1.0
C3,st_fp,1.0
C3,st_vt,1.0
C4,pv,1.0
C4,st_fp,1.0
C4,st_vt,1.0
C5,pv,1.0
C5,st_fp,1.0
C5,st_vt,1.0
C6,pv,1.0
C6,st_fp,1.0
C6,st_vt,1.0
C7,pv,1.0
C7,st_fp,1.0
C7,st_vt,1.0
C8,pv,1.0
C8,st_fp,1.0
C8,st_vt,1.0
C9,pv,1.0
C9,st_fp,1.0
C9,st_vt,1.0
EG,pv,1.0
