carrier_tiers,carriers,locs,techs,carrier_ratios
out,electricity,EG,chp,1.0
out,gas,A1,gas_boiler,1.0
out,gas,A2,gas_boiler,1.0
out,gas,A3,gas_boiler,1.0
out,gas,A4,gas_boiler,1.0
out,gas,A5,gas_boiler,1.0
out,gas,A6,gas_boiler,1.0
out,gas,A7,gas_boiler,1.0
out,gas,A8,gas_boiler,1.0
out,gas,B1,gas_boiler,1.0
out,gas,B2,gas_boiler,1.0
out,gas,B3,gas_boiler,1.0
out,gas,B4,gas_boiler,1.0
out,gas,B5,gas_boiler,1.0
out,gas,C1,gas_boiler,1.0
out,gas,C10,gas_boiler,1.0
out,gas,C11,gas_boiler,1.0
out,gas,C12,gas_boiler,1.0
out,gas,C2,gas_boiler,1.0
out,gas,C3,gas_boiler,1.0
out,gas,C4,gas_boiler,1.0
out,gas,C5,gas_boiler,1.0
out,gas,C6,gas_boiler,1.0
out,gas,C7,gas_boiler,1.0
out,gas,C8,gas_boiler,1.0
out,gas,C9,gas_boiler,1.0
out,gas,EG,chp,1.0
out,heat,EG,chp,1.0
out,space_heat,A1,gas_boiler,1.0
out,space_heat,A2,gas_boiler,1.0
out,space_heat,A3,gas_boiler,1.0
out,space_heat,A4,gas_boiler,1.0
out,space_heat,A5,gas_boiler,1.0
out,space_heat,A6,gas_boiler,1.0
out,space_heat,A7,gas_boiler,1.0
out,space_heat,A8,gas_boiler,1.0
out,space_heat,B1,gas_boiler,1.0
out,space_heat,B2,gas_boiler,1.0
out,space_heat,B3,gas_boiler,1.0
out,space_heat,B4,gas_boiler,1.0
out,space_heat,B5,gas_boiler,1.0
out,space_heat,C1,gas_boiler,1.0
out,space_heat,C10,gas_boiler,1.0
out,space_heat,C11,gas_boiler,1.0
out,space_heat,C12,gas_boiler,1.0
out,space_heat,C2,gas_boiler,1.0
out,space_heat,C3,gas_boiler,1.0
out,space_heat,C4,gas_boiler,1.0
out,space_heat,C5,gas_boiler,1.0
out,space_heat,C6,gas_boiler,1.0
out,space_heat,C7,gas_boiler,1.0
out,space_heat,C8,gas_boiler,1.0
out,space_heat,C9,gas_boiler,1.0
out,water_heat,A1,gas_boiler,1.0
out,water_heat,A2,gas_boiler,1.0
out,water_heat,A3,gas_boiler,1.0
out,water_heat,A4,gas_boiler,1.0
out,water_heat,A5,gas_boiler,1.0
out,water_heat,A6,gas_boiler,1.0
out,water_heat,A7,gas_boiler,1.0
out,water_heat,A8,gas_boiler,1.0
out,water_heat,B1,gas_boiler,1.0
out,water_heat,B2,gas_boiler,1.0
out,water_heat,B3,gas_boiler,1.0
out,water_heat,B4,gas_boiler,1.0
out,water_heat,B5,gas_boiler,1.0
out,water_heat,C1,gas_boiler,1.0
out,water_heat,C10,gas_boiler,1.0
out,water_heat,C11,gas_boiler,1.0
out,water_heat,C12,gas_boiler,1.0
out,water_heat,C2,gas_boiler,1.0
out,water_heat,C3,gas_boiler,1.0
out,water_heat,C4,gas_boiler,1.0
out,water_heat,C5,gas_boiler,1.0
out,water_heat,C6,gas_boiler,1.0
out,water_heat,C7,gas_boiler,1.0
out,water_heat,C8,gas_boiler,1.0
out,water_heat,C9,gas_boiler,1.0
in,electricity,EG,chp,1.0
in,gas,A1,gas_boiler,1.0
in,gas,A2,gas_boiler,1.0
in,gas,A3,gas_boiler,1.0
in,gas,A4,gas_boiler,1.0
in,gas,A5,gas_boiler,1.0
in,gas,A6,gas_boiler,1.0
in,gas,A7,gas_boiler,1.0
in,gas,A8,gas_boiler,1.0
in,gas,B1,gas_boiler,1.0
in,gas,B2,gas_boiler,1.0
in,gas,B3,gas_boiler,1.0
in,gas,B4,gas_boiler,1.0
in,gas,B5,gas_boiler,1.0
in,gas,C1,gas_boiler,1.0
in,gas,C10,gas_boiler,1.0
in,gas,C11,gas_boiler,1.0
in,gas,C12,gas_boiler,1.0
in,gas,C2,gas_boiler,1.0
in,gas,C3,gas_boiler,1.0
in,gas,C4,gas_boiler,1.0
in,gas,C5,gas_boiler,1.0
in,gas,C6,gas_boiler,1.0
in,gas,C7,gas_boiler,1.0
in,gas,C8,gas_boiler,1.0
in,gas,C9,gas_boiler,1.0
in,gas,EG,chp,1.0
in,heat,EG,chp,1.0
in,space_heat,A1,gas_boiler,1.0
in,space_heat,A2,gas_boiler,1.0
in,space_heat,A3,gas_boiler,1.0
in,space_heat,A4,gas_boiler,1.0
in,space_heat,A5,gas_boiler,1.0
in,space_heat,A6,gas_boiler,1.0
in,space_heat,A7,gas_boiler,1.0
in,space_heat,A8,gas_boiler,1.0
in,space_heat,B1,gas_boiler,1.0
in,space_heat,B2,gas_boiler,1.0
in,space_heat,B3,gas_boiler,1.0
in,space_heat,B4,gas_boiler,1.0
in,space_heat,B5,gas_boiler,1.0
in,space_heat,C1,gas_boiler,1.0
in,space_heat,C10,gas_boiler,1.0
in,space_heat,C11,gas_boiler,1.0
in,space_heat,C12,gas_boiler,1.0
in,space_heat,C2,gas_boiler,1.0
in,space_heat,C3,gas_boiler,1.0
in,space_heat,C4,gas_boiler,1.0
in,space_heat,C5,gas_boiler,1.0
in,space_heat,C6,gas_boiler,1.0
in,space_heat,C7,gas_boiler,1.0
in,space_heat,C8,gas_boiler,1.0
in,space_heat,C9,gas_boiler,1.0
in,water_heat,A1,gas_boiler,1.0
in,water_heat,A2,gas_boiler,1.0
in,water_heat,A3,gas_boiler,1.0
in,water_heat,A4,gas_boiler,1.0
in,water_heat,A5,gas_boiler,1.0
in,water_heat,A6,gas_boiler,1.0
in,water_heat,A7,gas_boiler,1.0
in,water_heat,A8,gas_boiler,1.0
in,water_heat,B1,gas_boiler,1.0
in,water_heat,B2,gas_boiler,1.0
in,water_heat,B3,gas_boiler,1.0
in,water_heat,B4,gas_boiler,1.0
in,water_heat,B5,gas_boiler,1.0
in,water_heat,C1,gas_boiler,1.0
in,water_heat,C10,gas_boiler,1.0
in,water_heat,C11,gas_boiler,1.0
in,water_heat,C12,gas_boiler,1.0
in,water_heat,C2,gas_boiler,1.0
in,water_heat,C3,gas_boiler,1.0
in,water_heat,C4,gas_boiler,1.0
in,water_heat,C5,gas_boiler,1.0
in,water_heat,C6,gas_boiler,1.0
in,water_heat,C7,gas_boiler,1.0
in,water_heat,C8,gas_boiler,1.0
in,water_heat,C9,gas_boiler,1.0
out_2,electricity,EG,chp,1.0
out_2,gas,A1,gas_boiler,1.0
out_2,gas,A2,gas_boiler,1.0
out_2,gas,A3,gas_boiler,1.0
out_2,gas,A4,gas_boiler,1.0
out_2,gas,A5,gas_boiler,1.0
out_2,gas,A6,gas_boiler,1.0
out_2,gas,A7,gas_boiler,1.0
out_2,gas,A8,gas_boiler,1.0
out_2,gas,B1,gas_boiler,1.0
out_2,gas,B2,gas_boiler,1.0
out_2,gas,B3,gas_boiler,1.0
out_2,gas,B4,gas_boiler,1.0
out_2,gas,B5,gas_boiler,1.0
out_2,gas,C1,gas_boiler,1.0
out_2,gas,C10,gas_boiler,1.0
out_2,gas,C11,gas_boiler,1.0
out_2,gas,C12,gas_boiler,1.0
out_2,gas,C2,gas_boiler,1.0
out_2,gas,C3,gas_boiler,1.0
out_2,gas,C4,gas_boiler,1.0
out_2,gas,C5,gas_boiler,1.0
out_2,gas,C6,gas_boiler,1.0
out_2,gas,C7,gas_boiler,1.0
out_2,gas,C8,gas_boiler,1.0
out_2,gas,C9,gas_boiler,1.0
out_2,gas,EG,chp,1.0
out_2,heat,EG,chp,0.8
out_2,space_heat,A1,gas_boiler,1.0
out_2,space_heat,A2,gas_boiler,1.0
out_2,space_heat,A3,gas_boiler,1.0
out_2,space_heat,A4,gas_boiler,1.0
out_2,space_heat,A5,gas_boiler,1.0
out_2,space_heat,A6,gas_boiler,1.0
out_2,space_heat,A7,gas_boiler,1.0
out_2,space_heat,A8,gas_boiler,1.0
out_2,space_heat,B1,gas_boiler,1.0
out_2,space_heat,B2,gas_boiler,1.0
out_2,space_heat,B3,gas_boiler,1.0
out_2,space_heat,B4,gas_boiler,1.0
out_2,space_heat,B5,gas_boiler,1.0
out_2,space_heat,C1,gas_boiler,1.0
out_2,space_heat,C10,gas_boiler,1.0
out_2,space_heat,C11,gas_boiler,1.0
out_2,space_heat,C12,gas_boiler,1.0
out_2,space_heat,C2,gas_boiler,1.0
out_2,space_heat,C3,gas_boiler,1.0
out_2,space_heat,C4,gas_boiler,1.0
out_2,space_heat,C5,gas_boiler,1.0
out_2,space_heat,C6,gas_boiler,1.0
out_2,space_heat,C7,gas_boiler,1.0
out_2,space_heat,C8,gas_boiler,1.0
out_2,space_heat,C9,gas_boiler,1.0
out_2,water_heat,A1,gas_boiler,1.0
out_2,water_heat,A2,gas_boiler,1.0
out_2,water_heat,A3,gas_boiler,1.0
out_2,water_heat,A4,gas_boiler,1.0
out_2,water_heat,A5,gas_boiler,1.0
out_2,water_heat,A6,gas_boiler,1.0
out_2,water_heat,A7,gas_boiler,1.0
out_2,water_heat,A8,gas_boiler,1.0
out_2,water_heat,B1,gas_boiler,1.0
out_2,water_heat,B2,gas_boiler,1.0
out_2,water_heat,B3,gas_boiler,1.0
out_2,water_heat,B4,gas_boiler,1.0
out_2,water_heat,B5,gas_boiler,1.0
out_2,water_heat,C1,gas_boiler,1.0
out_2,water_heat,C10,gas_boiler,1.0
out_2,water_heat,C11,gas_boiler,1.0
out_2,water_heat,C12,gas_boiler,1.0
out_2,water_heat,C2,gas_boiler,1.0
out_2,water_heat,C3,gas_boiler,1.0
out_2,water_heat,C4,gas_boiler,1.0
out_2,water_heat,C5,gas_boiler,1.0
out_2,water_heat,C6,gas_boiler,1.0
out_2,water_heat,C7,gas_boiler,1.0
out_2,water_heat,C8,gas_boiler,1.0
out_2,water_heat,C9,gas_boiler,1.0
