costs,locs,techs,cost
co2,A1,car_ev,0.0
co2,A1,car_ice,0.0
co2,A1,electric_heater,0.0
co2,A1,electric_hob,0.0
co2,A1,gas_boiler,0.0
co2,A1,gas_hob,0.0
co2,A1,ground_heat,0.0
co2,A1,gshp,0.0
co2,A1,load_shedding,0.0
co2,A1,power_lines:EG,0.0
co2,A1,pv,0.0
co2,A1,st_fp,0.0
co2,A1,st_vt,0.0
co2,A1,store_electricity,0.0
co2,A1,store_heat,0.0
co2,A1,supply_diesel,0.0
co2,A1,supply_gas,7.678665312499998
co2,A2,car_ev,0.0
co2,A2,car_ice,0.0
co2,A2,electric_heater,0.0
co2,A2,electric_hob,0.0
co2,A2,gas_boiler,0.0
co2,A2,gas_hob,0.0
co2,A2,ground_heat,0.0
co2,A2,gshp,0.0
co2,A2,load_shedding,0.0
co2,A2,power_lines:EG,0.0
co2,A2,pv,0.0
co2,A2,st_fp,0.0
co2,A2,st_vt,0.0
co2,A2,store_electricity,0.0
co2,A2,store_heat,0.0
co2,A2,supply_diesel,0.0
co2,A2,supply_gas,5.874647720121975
co2,A3,car_ev,0.0
co2,A3,car_ice,0.0
co2,A3,electric_heater,0.0
co2,A3,electric_hob,0.0
co2,A3,gas_boiler,0.0
co2,A3,gas_hob,0.0
co2,A3,ground_heat,0.0
co2,A3,gshp,0.0
co2,A3,load_shedding,0.0
co2,A3,power_lines:EG,0.0
co2,A3,pv,0.0
co2,A3,st_fp,0.0
co2,A3,st_vt,0.0
co2,A3,store_electricity,0.0
co2,A3,store_heat,0.0
co2,A3,supply_diesel,0.0
co2,A3,supply_gas,14.237368945352909
co2,A4,car_ev,0.0
co2,A4,car_ice,0.0
co2,A4,electric_heater,0.0
co2,A4,electric_hob,0.0
co2,A4,gas_boiler,0.0
co2,A4,gas_hob,0.0
co2,A4,ground_heat,0.0
co2,A4,gshp,0.0
co2,A4,load_shedding,0.0
co2,A4,power_lines:EG,0.0
co2,A4,pv,0.0
co2,A4,st_fp,0.0
co2,A4,st_vt,0.0
co2,A4,store_electricity,0.0
co2,A4,store_heat,0.0
co2,A4,supply_diesel,0.0
co2,A4,supply_gas,12.8765310625
co2,A5,car_ev,0.0
co2,A5,car_ice,0.0
co2,A5,electric_heater,0.0
co2,A5,electric_hob,0.0
co2,A5,gas_boiler,0.0
co2,A5,gas_hob,0.0
co2,A5,ground_heat,0.0
co2,A5,gshp,0.0
co2,A5,load_shedding,0.0
co2,A5,power_lines:EG,0.0
co2,A5,pv,0.0
co2,A5,st_fp,0.0
co2,A5,st_vt,0.0
co2,A5,store_electricity,0.0
co2,A5,store_heat,0.0
co2,A5,supply_diesel,0.0
co2,A5,supply_gas,16.701399952314425
co2,A6,car_ev,0.0
co2,A6,car_ice,0.0
co2,A6,electric_heater,0.0
co2,A6,electric_hob,0.0
co2,A6,gas_boiler,0.0
co2,A6,gas_hob,0.0
co2,A6,ground_heat,0.0
co2,A6,gshp,0.0
co2,A6,load_shedding,0.0
co2,A6,power_lines:EG,0.0
co2,A6,pv,0.0
co2,A6,st_fp,0.0
co2,A6,st_vt,0.0
co2,A6,store_electricity,0.0
co2,A6,store_heat,0.0
co2,A6,supply_diesel,0.0
co2,A6,supply_gas,11.754264593749994
co2,A7,car_ev,0.0
co2,A7,car_ice,0.0
co2,A7,electric_heater,0.0
co2,A7,electric_hob,0.0
co2,A7,gas_boiler,0.0
co2,A7,gas_hob,0.0
co2,A7,ground_heat,0.0
co2,A7,gshp,0.0
co2,A7,load_shedding,0.0
co2,A7,power_lines:EG,0.0
co2,A7,pv,0.0
co2,A7,st_fp,0.0
co2,A7,st_vt,0.0
co2,A7,store_electricity,0.0
co2,A7,store_heat,0.0
co2,A7,supply_diesel,0.0
co2,A7,supply_gas,5.436640690450754
co2,A8,car_ev,0.0
co2,A8,car_ice,0.0
co2,A8,electric_heater,0.0
co2,A8,electric_hob,0.0
co2,A8,gas_boiler,0.0
co2,A8,gas_hob,0.0
co2,A8,ground_heat,0.0
co2,A8,gshp,0.0
co2,A8,load_shedding,0.0
co2,A8,power_lines:EG,0.0
co2,A8,pv,0.0
co2,A8,st_fp,0.0
co2,A8,st_vt,0.0
co2,A8,store_electricity,0.0
co2,A8,store_heat,0.0
co2,A8,supply_diesel,0.0
co2,A8,supply_gas,11.647879765743822
co2,B1,car_ev,0.0
co2,B1,car_ice,0.0
co2,B1,electric_heater,0.0
co2,B1,electric_hob,0.0
co2,B1,gas_boiler,0.0
co2,B1,gas_hob,0.0
co2,B1,ground_heat,0.0
co2,B1,gshp,0.0
co2,B1,load_shedding,0.0
co2,B1,power_lines:EG,0.0
co2,B1,pv,0.0
co2,B1,st_fp,0.0
co2,B1,st_vt,0.0
co2,B1,store_electricity,0.0
co2,B1,store_heat,0.0
co2,B1,supply_diesel,0.0
co2,B1,supply_gas,12.4289847201542
co2,B2,car_ev,0.0
co2,B2,car_ice,0.0
co2,B2,electric_heater,0.0
co2,B2,electric_hob,0.0
co2,B2,gas_boiler,0.0
co2,B2,gas_hob,0.0
co2,B2,ground_heat,0.0
co2,B2,gshp,0.0
co2,B2,load_shedding,0.0
co2,B2,power_lines:EG,0.0
co2,B2,pv,0.0
co2,B2,st_fp,0.0
co2,B2,st_vt,0.0
co2,B2,store_electricity,0.0
co2,B2,store_heat,0.0
co2,B2,supply_diesel,0.0
co2,B2,supply_gas,9.253776145833328
co2,B3,car_ev,0.0
co2,B3,car_ice,0.0
co2,B3,electric_heater,0.0
co2,B3,electric_hob,0.0
co2,B3,gas_boiler,0.0
co2,B3,gas_hob,0.0
co2,B3,ground_heat,0.0
co2,B3,gshp,0.0
co2,B3,load_shedding,0.0
co2,B3,power_lines:EG,0.0
co2,B3,pv,0.0
co2,B3,st_fp,0.0
co2,B3,st_vt,0.0
co2,B3,store_electricity,0.0
co2,B3,store_heat,0.0
co2,B3,supply_diesel,0.0
co2,B3,supply_gas,4.489065875
co2,B4,car_ev,0.0
co2,B4,car_ice,0.0
co2,B4,electric_heater,0.0
co2,B4,electric_hob,0.0
co2,B4,gas_boiler,0.0
co2,B4,gas_hob,0.0
co2,B4,ground_heat,0.0
co2,B4,gshp,0.0
co2,B4,load_shedding,0.0
co2,B4,power_lines:EG,0.0
co2,B4,pv,0.0
co2,B4,st_fp,0.0
co2,B4,st_vt,0.0
co2,B4,store_electricity,0.0
co2,B4,store_heat,0.0
co2,B4,supply_diesel,0.0
co2,B4,supply_gas,19.11942288151338
co2,B5,car_ev,0.0
co2,B5,car_ice,0.0
co2,B5,electric_heater,0.0
co2,B5,electric_hob,0.0
co2,B5,gas_boiler,0.0
co2,B5,gas_hob,0.0
co2,B5,ground_heat,0.0
co2,B5,gshp,0.0
co2,B5,load_shedding,0.0
co2,B5,power_lines:EG,0.0
co2,B5,pv,0.0
co2,B5,st_fp,0.0
co2,B5,st_vt,0.0
co2,B5,store_electricity,0.0
co2,B5,store_heat,0.0
co2,B5,supply_diesel,0.0
co2,B5,supply_gas,15.688579000323138
co2,C1,car_ev,0.0
co2,C1,car_ice,0.0
co2,C1,electric_heater,0.0
co2,C1,electric_hob,0.0
co2,C1,gas_boiler,0.0
co2,C1,gas_hob,0.0
co2,C1,ground_heat,0.0
co2,C1,gshp,0.0
co2,C1,load_shedding,0.0
co2,C1,power_lines:EG,0.0
co2,C1,pv,0.0
co2,C1,st_fp,0.0
co2,C1,st_vt,0.0
co2,C1,store_electricity,0.0
co2,C1,store_heat,0.0
co2,C1,supply_diesel,0.0
co2,C1,supply_gas,9.224896594641757
co2,C10,car_ev,0.0
co2,C10,car_ice,0.0
co2,C10,electric_heater,0.0
co2,C10,electric_hob,0.0
co2,C10,gas_boiler,0.0
co2,C10,gas_hob,0.0
co2,C10,ground_heat,0.0
co2,C10,gshp,0.0
co2,C10,load_shedding,0.0
co2,C10,power_lines:EG,0.0
co2,C10,pv,0.0
co2,C10,st_fp,0.0
co2,C10,st_vt,0.0
co2,C10,store_electricity,0.0
co2,C10,store_heat,0.0
co2,C10,supply_diesel,0.0
co2,C10,supply_gas,9.66711155602151
co2,C11,car_ev,0.0
co2,C11,car_ice,0.0
co2,C11,electric_heater,0.0
co2,C11,electric_hob,0.0
co2,C11,gas_boiler,0.0
co2,C11,gas_hob,0.0
co2,C11,ground_heat,0.0
co2,C11,gshp,0.0
co2,C11,load_shedding,0.0
co2,C11,power_lines:EG,0.0
co2,C11,pv,0.0
co2,C11,st_fp,0.0
co2,C11,st_vt,0.0
co2,C11,store_electricity,0.0
co2,C11,store_heat,0.0
co2,C11,supply_diesel,0.0
co2,C11,supply_gas,13.781091810716598
co2,C12,car_ev,0.0
co2,C12,car_ice,0.0
co2,C12,electric_heater,0.0
co2,C12,electric_hob,0.0
co2,C12,gas_boiler,0.0
co2,C12,gas_hob,0.0
co2,C12,ground_heat,0.0
co2,C12,gshp,0.0
co2,C12,load_shedding,0.0
co2,C12,power_lines:EG,0.0
co2,C12,pv,0.0
co2,C12,st_fp,0.0
co2,C12,st_vt,0.0
co2,C12,store_electricity,0.0
co2,C12,store_heat,0.0
co2,C12,supply_diesel,0.0
co2,C12,supply_gas,6.261065562499998
co2,C2,car_ev,0.0
co2,C2,car_ice,0.0
co2,C2,electric_heater,0.0
co2,C2,electric_hob,0.0
co2,C2,gas_boiler,0.0
co2,C2,gas_hob,0.0
co2,C2,ground_heat,0.0
co2,C2,gshp,0.0
co2,C2,load_shedding,0.0
co2,C2,power_lines:EG,0.0
co2,C2,pv,0.0
co2,C2,st_fp,0.0
co2,C2,st_vt,0.0
co2,C2,store_electricity,0.0
co2,C2,store_heat,0.0
co2,C2,supply_diesel,0.0
co2,C2,supply_gas,2.6383106458333336
co2,C3,car_ev,0.0
co2,C3,car_ice,0.0
co2,C3,electric_heater,0.0
co2,C3,electric_hob,0.0
co2,C3,gas_boiler,0.0
co2,C3,gas_hob,0.0
co2,C3,ground_heat,0.0
co2,C3,gshp,0.0
co2,C3,load_shedding,0.0
co2,C3,power_lines:EG,0.0
co2,C3,pv,0.0
co2,C3,st_fp,0.0
co2,C3,st_vt,0.0
co2,C3,store_electricity,0.0
co2,C3,store_heat,0.0
co2,C3,supply_diesel,0.0
co2,C3,supply_gas,6.064176708333331
co2,C4,car_ev,0.0
co2,C4,car_ice,0.0
co2,C4,electric_heater,0.0
co2,C4,electric_hob,0.0
co2,C4,gas_boiler,0.0
co2,C4,gas_hob,0.0
co2,C4,ground_heat,0.0
co2,C4,gshp,0.0
co2,C4,load_shedding,0.0
co2,C4,power_lines:EG,0.0
co2,C4,pv,0.0
co2,C4,st_fp,0.0
co2,C4,st_vt,0.0
co2,C4,store_electricity,0.0
co2,C4,store_heat,0.0
co2,C4,supply_diesel,0.0
co2,C4,supply_gas,2.6383106458333336
co2,C5,car_ev,0.0
co2,C5,car_ice,0.0
co2,C5,electric_heater,0.0
co2,C5,electric_hob,0.0
co2,C5,gas_boiler,0.0
co2,C5,gas_hob,0.0
co2,C5,ground_heat,0.0
co2,C5,gshp,0.0
co2,C5,load_shedding,0.0
co2,C5,power_lines:EG,0.0
co2,C5,pv,0.0
co2,C5,st_fp,0.0
co2,C5,st_vt,0.0
co2,C5,store_electricity,0.0
co2,C5,store_heat,0.0
co2,C5,supply_diesel,0.0
co2,C5,supply_gas,10.368381314994792
co2,C6,car_ev,0.0
co2,C6,car_ice,0.0
co2,C6,electric_heater,0.0
co2,C6,electric_hob,0.0
co2,C6,gas_boiler,0.0
co2,C6,gas_hob,0.0
co2,C6,ground_heat,0.0
co2,C6,gshp,0.0
co2,C6,load_shedding,0.0
co2,C6,power_lines:EG,0.0
co2,C6,pv,0.0
co2,C6,st_fp,0.0
co2,C6,st_vt,0.0
co2,C6,store_electricity,0.0
co2,C6,store_heat,0.0
co2,C6,supply_diesel,0.0
co2,C6,supply_gas,6.944646249473333
co2,C7,car_ev,0.0
co2,C7,car_ice,0.0
co2,C7,electric_heater,0.0
co2,C7,electric_hob,0.0
co2,C7,gas_boiler,0.0
co2,C7,gas_hob,0.0
co2,C7,ground_heat,0.0
co2,C7,gshp,0.0
co2,C7,load_shedding,0.0
co2,C7,power_lines:EG,0.0
co2,C7,pv,0.0
co2,C7,st_fp,0.0
co2,C7,st_vt,0.0
co2,C7,store_electricity,0.0
co2,C7,store_heat,0.0
co2,C7,supply_diesel,0.0
co2,C7,supply_gas,18.244380712270374
co2,C8,car_ev,0.0
co2,C8,car_ice,0.0
co2,C8,electric_heater,0.0
co2,C8,electric_hob,0.0
co2,C8,gas_boiler,0.0
co2,C8,gas_hob,0.0
co2,C8,ground_heat,0.0
co2,C8,gshp,0.0
co2,C8,load_shedding,0.0
co2,C8,power_lines:EG,0.0
co2,C8,pv,0.0
co2,C8,st_fp,0.0
co2,C8,st_vt,0.0
co2,C8,store_electricity,0.0
co2,C8,store_heat,0.0
co2,C8,supply_diesel,0.0
co2,C8,supply_gas,23.27483891064241
co2,C9,car_ev,0.0
co2,C9,car_ice,0.0
co2,C9,electric_heater,0.0
co2,C9,electric_hob,0.0
co2,C9,gas_boiler,0.0
co2,C9,gas_hob,0.0
co2,C9,ground_heat,0.0
co2,C9,gshp,0.0
co2,C9,load_shedding,0.0
co2,C9,power_lines:EG,0.0
co2,C9,pv,0.0
co2,C9,st_fp,0.0
co2,C9,st_vt,0.0
co2,C9,store_electricity,0.0
co2,C9,store_heat,0.0
co2,C9,supply_diesel,0.0
co2,C9,supply_gas,17.88539873306495
co2,EG,chp,0.0
co2,EG,power_lines:A1,0.0
co2,EG,power_lines:A2,0.0
co2,EG,power_lines:A3,0.0
co2,EG,power_lines:A4,0.0
co2,EG,power_lines:A5,0.0
co2,EG,power_lines:A6,0.0
co2,EG,power_lines:A7,0.0
co2,EG,power_lines:A8,0.0
co2,EG,power_lines:B1,0.0
co2,EG,power_lines:B2,0.0
co2,EG,power_lines:B3,0.0
co2,EG,power_lines:B4,0.0
co2,EG,power_lines:B5,0.0
co2,EG,power_lines:C1,0.0
co2,EG,power_lines:C10,0.0
co2,EG,power_lines:C11,0.0
co2,EG,power_lines:C12,0.0
co2,EG,power_lines:C2,0.0
co2,EG,power_lines:C3,0.0
co2,EG,power_lines:C4,0.0
co2,EG,power_lines:C5,0.0
co2,EG,power_lines:C6,0.0
co2,EG,power_lines:C7,0.0
co2,EG,power_lines:C8,0.0
co2,EG,power_lines:C9,0.0
co2,EG,pv,0.0
co2,EG,supply_gas,0.0
co2,EG,supply_grid_power,171.53445319916523
monetary,A1,car_ev,0.0
monetary,A1,car_ice,0.0
monetary,A1,electric_heater,0.0
monetary,A1,electric_hob,0.05965807991886319
monetary,A1,gas_boiler,0.0
monetary,A1,gas_hob,0.0
monetary,A1,ground_heat,0.0
monetary,A1,gshp,11.85669516619621
monetary,A1,load_shedding,0.0
monetary,A1,power_lines:EG,8.791198477025307e-05
monetary,A1,pv,16.760317799189405
monetary,A1,st_fp,0.0
monetary,A1,st_vt,0.0
monetary,A1,store_electricity,1.7154081495624294
monetary,A1,store_heat,0.4832792090458941
monetary,A1,supply_diesel,0.0
monetary,A1,supply_gas,7.565187500000002
monetary,A2,car_ev,0.09005053211463847
monetary,A2,car_ice,0.0
monetary,A2,electric_heater,0.0
monetary,A2,electric_hob,0.0635415817796654
monetary,A2,gas_boiler,0.0
monetary,A2,gas_hob,0.0
monetary,A2,ground_heat,0.0
monetary,A2,gshp,12.43044140557313
monetary,A2,load_shedding,0.0
monetary,A2,power_lines:EG,4.0976848255189365e-05
monetary,A2,pv,16.511498429246878
monetary,A2,st_fp,0.3572182479910534
monetary,A2,st_vt,0.0
monetary,A2,store_electricity,1.9894036523777658
monetary,A2,store_heat,0.32736851271711814
monetary,A2,supply_diesel,0.0
monetary,A2,supply_gas,5.7878302661300225
monetary,A3,car_ev,0.5997365438834922
monetary,A3,car_ice,0.0
monetary,A3,electric_heater,0.0
monetary,A3,electric_hob,0.044033357145638365
monetary,A3,gas_boiler,0.0
monetary,A3,gas_hob,0.0
monetary,A3,ground_heat,0.0
monetary,A3,gshp,11.278139133466075
monetary,A3,load_shedding,0.0
monetary,A3,power_lines:EG,0.00014172729374785028
monetary,A3,pv,16.50278274180007
monetary,A3,st_fp,0.36973094987799243
monetary,A3,st_vt,0.0
monetary,A3,store_electricity,2.1281927087335792
monetary,A3,store_heat,0.5026404880475414
monetary,A3,supply_diesel,0.0
monetary,A3,supply_gas,14.026964478180211
monetary,A4,car_ev,0.7594261542268181
monetary,A4,car_ice,0.0
monetary,A4,electric_heater,0.0
monetary,A4,electric_hob,0.10593366958580287
monetary,A4,gas_boiler,0.0
monetary,A4,gas_hob,0.0
monetary,A4,ground_heat,0.0
monetary,A4,gshp,11.410737031886537
monetary,A4,load_shedding,0.0
monetary,A4,power_lines:EG,9.287263623391617e-05
monetary,A4,pv,16.760317799189405
monetary,A4,st_fp,0.0
monetary,A4,st_vt,0.0
monetary,A4,store_electricity,3.668512974092933
monetary,A4,store_heat,0.6158036222995638
monetary,A4,supply_diesel,0.0
monetary,A4,supply_gas,12.686237500000004
monetary,A5,car_ev,0.5943335119566139
monetary,A5,car_ice,0.0
monetary,A5,electric_heater,0.0
monetary,A5,electric_hob,0.1396839039743941
monetary,A5,gas_boiler,0.0
monetary,A5,gas_hob,0.0
monetary,A5,ground_heat,0.0
monetary,A5,gshp,11.150088126782892
monetary,A5,load_shedding,0.0
monetary,A5,power_lines:EG,9.342859943468312e-05
monetary,A5,pv,16.41548746353621
monetary,A5,st_fp,0.4950566685570114
monetary,A5,st_vt,0.0
monetary,A5,store_electricity,3.2063476278244267
monetary,A5,store_heat,0.6789255555766657
monetary,A5,supply_diesel,0.0
monetary,A5,supply_gas,16.454581233807318
monetary,A6,car_ev,0.0
monetary,A6,car_ice,0.0
monetary,A6,electric_heater,0.0
monetary,A6,electric_hob,0.0866851982853928
monetary,A6,gas_boiler,0.0
monetary,A6,gas_hob,0.0
monetary,A6,ground_heat,0.0
monetary,A6,gshp,11.712614728953382
monetary,A6,load_shedding,0.0
monetary,A6,power_lines:EG,8.935795146244643e-05
monetary,A6,pv,16.760317799189405
monetary,A6,st_fp,0.0
monetary,A6,st_vt,0.0
monetary,A6,store_electricity,2.014497487912193
monetary,A6,store_heat,0.4899517685230305
monetary,A6,supply_diesel,0.0
monetary,A6,supply_gas,11.58055625
monetary,A7,car_ev,0.0
monetary,A7,car_ice,0.0
monetary,A7,electric_heater,0.0
monetary,A7,electric_hob,0.13259101442497787
monetary,A7,gas_boiler,0.0
monetary,A7,gas_hob,0.0
monetary,A7,ground_heat,0.0
monetary,A7,gshp,12.32705328562619
monetary,A7,load_shedding,0.0
monetary,A7,power_lines:EG,9.613761975174414e-05
monetary,A7,pv,16.635908114218143
monetary,A7,st_fp,0.1786091239955267
monetary,A7,st_vt,0.0
monetary,A7,store_electricity,2.0192108424154767
monetary,A7,store_heat,0.26607476570999944
monetary,A7,supply_diesel,0.0
monetary,A7,supply_gas,5.3562962467495145
monetary,A8,car_ev,0.6663739376483246
monetary,A8,car_ice,0.0
monetary,A8,electric_heater,0.0
monetary,A8,electric_hob,0.04005418734128728
monetary,A8,gas_boiler,0.0
monetary,A8,gas_hob,0.0
monetary,A8,ground_heat,0.0
monetary,A8,gshp,11.699175903402168
monetary,A8,load_shedding,0.0
monetary,A8,power_lines:EG,0.00020858533549157878
monetary,A8,pv,16.622385664928125
monetary,A8,st_fp,0.19802266742280458
monetary,A8,st_vt,0.0
monetary,A8,store_electricity,1.740088220039948
monetary,A8,store_heat,0.4237510069256791
monetary,A8,supply_diesel,0.0
monetary,A8,supply_gas,11.475743611570266
monetary,B1,car_ev,0.33018528436030736
monetary,B1,car_ice,0.0
monetary,B1,electric_heater,0.0
monetary,B1,electric_hob,0.051970754527002685
monetary,B1,gas_boiler,0.0
monetary,B1,gas_hob,0.0
monetary,B1,ground_heat,0.0
monetary,B1,gshp,11.767449287539547
monetary,B1,load_shedding,0.0
monetary,B1,power_lines:EG,0.00014800733995534344
monetary,B1,pv,16.63745022959438
monetary,B1,st_fp,0.17639518159616094
monetary,B1,st_vt,0.0
monetary,B1,store_electricity,1.89058427517217
monetary,B1,store_heat,0.5278931944322527
monetary,B1,supply_diesel,0.0
monetary,B1,supply_gas,12.24530514300907
monetary,B2,car_ev,0.0
monetary,B2,car_ice,0.0
monetary,B2,electric_heater,0.0
monetary,B2,electric_hob,0.036527973272819134
monetary,B2,gas_boiler,0.0
monetary,B2,gas_hob,0.0
monetary,B2,ground_heat,0.0
monetary,B2,gshp,12.059433848165876
monetary,B2,load_shedding,0.0
monetary,B2,power_lines:EG,5.609278857704064e-05
monetary,B2,pv,16.760317799189405
monetary,B2,st_fp,0.0
monetary,B2,st_vt,0.0
monetary,B2,store_electricity,1.8021333142112554
monetary,B2,store_heat,0.3657449853662535
monetary,B2,supply_diesel,0.0
monetary,B2,supply_gas,9.117020833333337
monetary,B3,car_ev,0.5997365438834922
monetary,B3,car_ice,0.0
monetary,B3,electric_heater,0.0
monetary,B3,electric_hob,0.07579060383232492
monetary,B3,gas_boiler,0.0
monetary,B3,gas_hob,0.0
monetary,B3,ground_heat,0.0
monetary,B3,gshp,12.28315933114941
monetary,B3,load_shedding,0.0
monetary,B3,power_lines:EG,0.00011916838911397103
monetary,B3,pv,16.760317799189405
monetary,B3,st_fp,0.0
monetary,B3,st_vt,0.0
monetary,B3,store_electricity,2.078785522887806
monetary,B3,store_heat,0.25948618334112983
monetary,B3,supply_diesel,0.0
monetary,B3,supply_gas,4.422725000000002
monetary,B4,car_ev,1.353759666183432
monetary,B4,car_ice,0.0
monetary,B4,electric_heater,0.0
monetary,B4,electric_hob,0.07487665059157296
monetary,B4,gas_boiler,0.0
monetary,B4,gas_hob,0.0
monetary,B4,ground_heat,0.0
monetary,B4,gshp,10.9514961340026
monetary,B4,load_shedding,0.0
monetary,B4,power_lines:EG,0.0002331951803910364
monetary,B4,pv,16.566424629926058
monetary,B4,st_fp,0.27836328915101793
monetary,B4,st_vt,0.0
monetary,B4,store_electricity,4.384862731043628
monetary,B4,store_heat,0.8981377396818679
monetary,B4,supply_diesel,0.0
monetary,B4,supply_gas,18.836869834003338
monetary,B5,car_ev,0.0
monetary,B5,car_ice,0.0
monetary,B5,electric_heater,0.0
monetary,B5,electric_hob,0.11046977197607519
monetary,B5,gas_boiler,0.0
monetary,B5,gas_hob,0.0
monetary,B5,ground_heat,0.0
monetary,B5,gshp,11.614674168548529
monetary,B5,load_shedding,0.0
monetary,B5,power_lines:EG,0.00011149773833829615
monetary,B5,pv,16.484453530666848
monetary,B5,st_fp,0.39604533484560916
monetary,B5,st_vt,0.0
monetary,B5,store_electricity,1.8929587454432601
monetary,B5,store_heat,0.481565982693603
monetary,B5,supply_diesel,0.0
monetary,B5,supply_gas,15.456728079136097
monetary,C1,car_ev,0.5997365438834922
monetary,C1,car_ice,0.0
monetary,C1,electric_heater,0.0
monetary,C1,electric_hob,0.05603415160885367
monetary,C1,gas_boiler,0.0
monetary,C1,gas_hob,0.0
monetary,C1,ground_heat,0.0
monetary,C1,gshp,11.819998952573087
monetary,C1,load_shedding,0.0
monetary,C1,power_lines:EG,0.00012554110353067162
monetary,C1,pv,15.984745122136014
monetary,C1,st_fp,1.1134531566040717
monetary,C1,st_vt,0.0
monetary,C1,store_electricity,2.7471927047367664
monetary,C1,store_heat,0.4254937729415393
monetary,C1,supply_diesel,0.0
monetary,C1,supply_gas,9.088568073538678
monetary,C10,car_ev,0.09005053211463847
monetary,C10,car_ice,0.0
monetary,C10,electric_heater,0.0
monetary,C10,electric_hob,0.064137728355851
monetary,C10,gas_boiler,0.0
monetary,C10,gas_hob,0.0
monetary,C10,ground_heat,0.0
monetary,C10,gshp,11.783586881229411
monetary,C10,load_shedding,0.0
monetary,C10,power_lines:EG,3.489725522968043e-05
monetary,C10,pv,16.625753058975892
monetary,C10,st_fp,0.1931882584203395
monetary,C10,st_vt,0.0
monetary,C10,store_electricity,1.832053174613494
monetary,C10,store_heat,0.4585692211652603
monetary,C10,supply_diesel,0.0
monetary,C10,supply_gas,9.524247838444836
monetary,C11,car_ev,0.6663739376483246
monetary,C11,car_ice,0.0
monetary,C11,electric_heater,0.0
monetary,C11,electric_hob,0.06474070414262549
monetary,C11,gas_boiler,0.0
monetary,C11,gas_hob,0.0
monetary,C11,ground_heat,0.0
monetary,C11,gshp,11.5468835319208
monetary,C11,load_shedding,0.0
monetary,C11,power_lines:EG,0.00010709709383272273
monetary,C11,pv,16.695180004500013
monetary,C11,st_fp,0.0935152633105723
monetary,C11,st_vt,0.0
monetary,C11,store_electricity,1.847029546047116
monetary,C11,store_heat,0.7993963385942062
monetary,C11,supply_diesel,0.0
monetary,C11,supply_gas,13.577430355385816
monetary,C12,car_ev,0.0
monetary,C12,car_ice,0.0
monetary,C12,electric_heater,0.0
monetary,C12,electric_hob,0.04452763496199345
monetary,C12,gas_boiler,0.0
monetary,C12,gas_hob,0.0
monetary,C12,ground_heat,0.0
monetary,C12,gshp,12.218602938831992
monetary,C12,load_shedding,0.0
monetary,C12,power_lines:EG,2.9162927000835742e-05
monetary,C12,pv,16.760317799189405
monetary,C12,st_fp,0.0
monetary,C12,st_vt,0.0
monetary,C12,store_electricity,2.0833342013398988
monetary,C12,store_heat,0.277902652845216
monetary,C12,supply_diesel,0.0
monetary,C12,supply_gas,6.168537500000001
monetary,C2,car_ev,0.0
monetary,C2,car_ice,0.0
monetary,C2,electric_heater,0.0
monetary,C2,electric_hob,0.009910520772343443
monetary,C2,gas_boiler,0.0
monetary,C2,gas_hob,0.0
monetary,C2,ground_heat,0.0
monetary,C2,gshp,12.364322026541608
monetary,C2,load_shedding,0.0
monetary,C2,power_lines:EG,3.005255520653333e-05
monetary,C2,pv,16.760317799189405
monetary,C2,st_fp,0.0
monetary,C2,st_vt,0.0
monetary,C2,store_electricity,2.1473410471735197
monetary,C2,store_heat,0.26928508780279986
monetary,C2,supply_diesel,0.0
monetary,C2,supply_gas,2.5993208333333335
monetary,C3,car_ev,0.49527792663051157
monetary,C3,car_ice,0.0
monetary,C3,electric_heater,0.0
monetary,C3,electric_hob,0.11512519897168505
monetary,C3,gas_boiler,0.0
monetary,C3,gas_hob,0.0
monetary,C3,ground_heat,0.0
monetary,C3,gshp,12.288595249426484
monetary,C3,load_shedding,0.0
monetary,C3,power_lines:EG,4.501260951355405e-05
monetary,C3,pv,16.760317799189405
monetary,C3,st_fp,0.0
monetary,C3,st_vt,0.0
monetary,C3,store_electricity,2.094551759122299
monetary,C3,store_heat,0.32155331859187547
monetary,C3,supply_diesel,0.0
monetary,C3,supply_gas,5.974558333333335
monetary,C4,car_ev,0.0
monetary,C4,car_ice,0.0
monetary,C4,electric_heater,0.0
monetary,C4,electric_hob,0.012330199396501818
monetary,C4,gas_boiler,0.0
monetary,C4,gas_hob,0.0
monetary,C4,ground_heat,0.0
monetary,C4,gshp,12.48852231950704
monetary,C4,load_shedding,0.0
monetary,C4,power_lines:EG,1.29789515738925e-05
monetary,C4,pv,16.760317799189405
monetary,C4,st_fp,0.0
monetary,C4,st_vt,0.0
monetary,C4,store_electricity,2.267586733699297
monetary,C4,store_heat,0.18801120717895903
monetary,C4,supply_diesel,0.0
monetary,C4,supply_gas,2.5993208333333335
monetary,C5,car_ev,0.5943335119566139
monetary,C5,car_ice,0.0
monetary,C5,electric_heater,0.0
monetary,C5,electric_hob,0.025746687725275247
monetary,C5,gas_boiler,0.0
monetary,C5,gas_hob,0.0
monetary,C5,ground_heat,0.0
monetary,C5,gshp,11.699705281702222
monetary,C5,load_shedding,0.0
monetary,C5,power_lines:EG,4.681592748343947e-05
monetary,C5,pv,16.37253146066271
monetary,C5,st_fp,0.5567265783020359
monetary,C5,st_vt,0.0
monetary,C5,store_electricity,1.7018525541936567
monetary,C5,store_heat,0.7280741054174978
monetary,C5,supply_diesel,0.0
monetary,C5,supply_gas,10.21515400492098
monetary,C6,car_ev,0.7594261542268181
monetary,C6,car_ice,0.0
monetary,C6,electric_heater,0.0
monetary,C6,electric_hob,0.05488547283300838
monetary,C6,gas_boiler,0.0
monetary,C6,gas_hob,0.0
monetary,C6,ground_heat,0.0
monetary,C6,gshp,12.149858916718664
monetary,C6,load_shedding,0.0
monetary,C6,power_lines:EG,0.00011034237867802193
monetary,C6,pv,16.760317799189405
monetary,C6,st_fp,0.0
monetary,C6,st_vt,0.0
monetary,C6,store_electricity,2.047310252124009
monetary,C6,store_heat,0.28916942258610817
monetary,C6,supply_diesel,0.0
monetary,C6,supply_gas,6.842016009333335
monetary,C7,car_ev,0.8773923512969946
monetary,C7,car_ice,0.0
monetary,C7,electric_heater,0.0
monetary,C7,electric_hob,0.10551343946244605
monetary,C7,gas_boiler,0.0
monetary,C7,gas_hob,0.0
monetary,C7,ground_heat,0.0
monetary,C7,gshp,11.025272303695536
monetary,C7,load_shedding,0.0
monetary,C7,power_lines:EG,0.0001489161385469735
monetary,C7,pv,16.268847520809295
monetary,C7,st_fp,0.7055807263846438
monetary,C7,st_vt,0.0
monetary,C7,store_electricity,1.197817177838997
monetary,C7,store_heat,0.7794945392333367
monetary,C7,supply_diesel,0.0
monetary,C7,supply_gas,17.974759322433865
monetary,C8,car_ev,0.0
monetary,C8,car_ice,0.0
monetary,C8,electric_heater,0.0
monetary,C8,electric_hob,0.1376913562981067
monetary,C8,gas_boiler,0.0
monetary,C8,gas_hob,0.0
monetary,C8,ground_heat,0.0
monetary,C8,gshp,10.892116895548641
monetary,C8,load_shedding,0.0
monetary,C8,power_lines:EG,9.89053202098605e-05
monetary,C8,pv,15.516220949476766
monetary,C8,st_fp,1.7860912399552669
monetary,C8,st_vt,0.0
monetary,C8,store_electricity,1.3520684124804097
monetary,C8,store_heat,0.564912844128866
monetary,C8,supply_diesel,0.0
monetary,C8,supply_gas,22.93087577403192
monetary,C9,car_ev,0.0
monetary,C9,car_ice,0.0
monetary,C9,electric_heater,0.0
monetary,C9,electric_hob,0.028094240199197425
monetary,C9,gas_boiler,0.0
monetary,C9,gas_hob,0.0
monetary,C9,ground_heat,0.0
monetary,C9,gshp,11.071371770676487
monetary,C9,load_shedding,0.0
monetary,C9,power_lines:EG,5.022944241248917e-05
monetary,C9,pv,16.011802720206074
monetary,C9,st_fp,1.0746078376899273
monetary,C9,st_vt,0.0
monetary,C9,store_electricity,1.7582316177675823
monetary,C9,store_heat,0.47100994886055747
monetary,C9,supply_diesel,0.0
monetary,C9,supply_gas,17.621082495630493
monetary,EG,chp,0.0
monetary,EG,power_lines:A1,8.791198477025307e-05
monetary,EG,power_lines:A2,4.0976848255189365e-05
monetary,EG,power_lines:A3,0.00014172729374785028
monetary,EG,power_lines:A4,9.287263623391617e-05
monetary,EG,power_lines:A5,9.342859943468312e-05
monetary,EG,power_lines:A6,8.935795146244643e-05
monetary,EG,power_lines:A7,9.613761975174414e-05
monetary,EG,power_lines:A8,0.00020858533549157878
monetary,EG,power_lines:B1,0.00014800733995534344
monetary,EG,power_lines:B2,5.609278857704064e-05
monetary,EG,power_lines:B3,0.00011916838911397103
monetary,EG,power_lines:B4,0.0002331951803910364
monetary,EG,power_lines:B5,0.00011149773833829615
monetary,EG,power_lines:C1,0.00012554110353067162
monetary,EG,power_lines:C10,3.489725522968043e-05
monetary,EG,power_lines:C11,0.00010709709383272273
monetary,EG,power_lines:C12,2.9162927000835742e-05
monetary,EG,power_lines:C2,3.005255520653333e-05
monetary,EG,power_lines:C3,4.501260951355405e-05
monetary,EG,power_lines:C4,1.29789515738925e-05
monetary,EG,power_lines:C5,4.681592748343947e-05
monetary,EG,power_lines:C6,0.00011034237867802193
monetary,EG,power_lines:C7,0.0001489161385469735
monetary,EG,power_lines:C8,9.89053202098605e-05
monetary,EG,power_lines:C9,5.022944241248917e-05
monetary,EG,pv,49.942683203334745
monetary,EG,supply_gas,0.0
monetary,EG,supply_grid_power,173.79818070991908
